EESchema Schematic File Version 2
LIBS:power
LIBS:device
LIBS:switches
LIBS:relays
LIBS:motors
LIBS:transistors
LIBS:conn
LIBS:linear
LIBS:regul
LIBS:74xx
LIBS:cmos4000
LIBS:adc-dac
LIBS:memory
LIBS:xilinx
LIBS:microcontrollers
LIBS:dsp
LIBS:microchip
LIBS:analog_switches
LIBS:motorola
LIBS:texas
LIBS:intel
LIBS:audio
LIBS:interface
LIBS:digital-audio
LIBS:philips
LIBS:display
LIBS:cypress
LIBS:siliconi
LIBS:opto
LIBS:atmel
LIBS:contrib
LIBS:valves
LIBS:arduino
LIBS:garagino
LIBS:modrs-485
LIBS:teclado
LIBS:modmax6675
LIBS:controle_v1-cache
EELAYER 25 0
EELAYER END
$Descr A4 11693 8268
encoding utf-8
Sheet 1 1
Title ""
Date ""
Rev ""
Comp ""
Comment1 ""
Comment2 ""
Comment3 ""
Comment4 ""
$EndDescr
$Comp
L Garagino J1
U 1 1 5C7091F4
P 6150 3700
F 0 "J1" H 6150 4400 50  0000 C CNN
F 1 "Garagino" H 6200 2850 50  0000 C CNN
F 2 "" H 5750 3700 50  0001 C CNN
F 3 "" H 5750 3700 50  0001 C CNN
	1    6150 3700
	1    0    0    -1  
$EndComp
$Comp
L WC1602A DS1
U 1 1 5C8280F2
P 3650 3700
F 0 "DS1" H 3420 4450 50  0000 C CNN
F 1 "WC1602A" H 3860 4450 50  0000 C CNN
F 2 "Displays:WC1602A" H 3650 2800 50  0001 C CIN
F 3 "" H 4350 3700 50  0001 C CNN
	1    3650 3700
	-1   0    0    1   
$EndComp
$Comp
L ModRS-485 U1
U 1 1 5C8284C7
P 4300 1700
F 0 "U1" H 4300 2150 60  0000 C CNN
F 1 "ModRS-485" H 4300 1300 60  0000 C CNN
F 2 "" H 4300 1800 60  0001 C CNN
F 3 "" H 4300 1800 60  0001 C CNN
	1    4300 1700
	-1   0    0    1   
$EndComp
$Comp
L Teclado T1
U 1 1 5C8286F4
P 7750 5050
F 0 "T1" H 7750 5350 60  0000 C CNN
F 1 "Teclado" H 7800 4750 60  0000 C CNN
F 2 "" H 7800 5050 60  0001 C CNN
F 3 "" H 7800 5050 60  0001 C CNN
	1    7750 5050
	1    0    0    -1  
$EndComp
$Comp
L SW_Push SW1
U 1 1 5C828922
P 4850 5600
F 0 "SW1" H 4900 5700 50  0000 L CNN
F 1 "Sensor_NO_Porta" H 4850 5540 50  0000 C CNN
F 2 "" H 4850 5800 50  0001 C CNN
F 3 "" H 4850 5800 50  0001 C CNN
	1    4850 5600
	1    0    0    -1  
$EndComp
$Comp
L GND #PWR01
U 1 1 5C828E44
P 7150 3700
F 0 "#PWR01" H 7150 3450 50  0001 C CNN
F 1 "GND" H 7150 3550 50  0000 C CNN
F 2 "" H 7150 3700 50  0001 C CNN
F 3 "" H 7150 3700 50  0001 C CNN
	1    7150 3700
	1    0    0    -1  
$EndComp
Wire Wire Line
	6800 3700 7150 3700
$Comp
L GND #PWR02
U 1 1 5C828EAA
P 4450 5600
F 0 "#PWR02" H 4450 5350 50  0001 C CNN
F 1 "GND" H 4450 5450 50  0000 C CNN
F 2 "" H 4450 5600 50  0001 C CNN
F 3 "" H 4450 5600 50  0001 C CNN
	1    4450 5600
	1    0    0    -1  
$EndComp
$Comp
L ModMax6675 U2
U 1 1 5C829C91
P 8350 2700
F 0 "U2" H 8350 3200 60  0000 C CNN
F 1 "ModMax6675" H 8350 2250 60  0000 C CNN
F 2 "" H 8350 2700 60  0001 C CNN
F 3 "" H 8350 2700 60  0001 C CNN
	1    8350 2700
	-1   0    0    1   
$EndComp
$Comp
L Thermocouple TC1
U 1 1 5C829E7E
P 9700 2700
F 0 "TC1" H 9580 2850 50  0000 C CNN
F 1 "Thermocouple" H 9500 2540 50  0000 L CNN
F 2 "" H 9125 2750 50  0001 C CNN
F 3 "" H 9125 2750 50  0001 C CNN
	1    9700 2700
	-1   0    0    1   
$EndComp
Wire Wire Line
	8850 2850 9600 2850
Wire Wire Line
	9600 2850 9600 2800
Wire Wire Line
	8850 2550 9600 2550
Wire Wire Line
	9600 2550 9600 2600
$Comp
L GND #PWR03
U 1 1 5C829FDE
P 7350 2500
F 0 "#PWR03" H 7350 2250 50  0001 C CNN
F 1 "GND" H 7350 2350 50  0000 C CNN
F 2 "" H 7350 2500 50  0001 C CNN
F 3 "" H 7350 2500 50  0001 C CNN
	1    7350 2500
	1    0    0    -1  
$EndComp
Wire Wire Line
	7350 2500 7350 2450
Wire Wire Line
	7350 2450 7850 2450
$Comp
L VCC #PWR04
U 1 1 5C82A013
P 7550 2600
F 0 "#PWR04" H 7550 2450 50  0001 C CNN
F 1 "VCC" H 7550 2750 50  0000 C CNN
F 2 "" H 7550 2600 50  0001 C CNN
F 3 "" H 7550 2600 50  0001 C CNN
	1    7550 2600
	1    0    0    -1  
$EndComp
Wire Wire Line
	7550 2600 7850 2600
Wire Wire Line
	6800 3400 7600 3400
Wire Wire Line
	7600 3400 7600 2750
Wire Wire Line
	7600 2750 7850 2750
Wire Wire Line
	6800 3500 7700 3500
Wire Wire Line
	7700 3500 7700 2900
Wire Wire Line
	7700 2900 7850 2900
Wire Wire Line
	7850 3050 7800 3050
Wire Wire Line
	7800 3050 7800 3600
Wire Wire Line
	7800 3600 6800 3600
Wire Wire Line
	6800 3100 6800 1500
Wire Wire Line
	6800 1500 5650 1500
Wire Wire Line
	5650 1950 6900 1950
Wire Wire Line
	6900 1950 6900 3200
Wire Wire Line
	6900 3200 6800 3200
NoConn ~ 6800 3300
NoConn ~ 5650 1800
$Comp
L VCC #PWR05
U 1 1 5C82A45A
P 6000 1700
F 0 "#PWR05" H 6000 1550 50  0001 C CNN
F 1 "VCC" H 6000 1850 50  0000 C CNN
F 2 "" H 6000 1700 50  0001 C CNN
F 3 "" H 6000 1700 50  0001 C CNN
	1    6000 1700
	1    0    0    -1  
$EndComp
Wire Wire Line
	6000 1700 5850 1700
Wire Wire Line
	5850 1700 5850 1650
Wire Wire Line
	5850 1650 5650 1650
$Comp
L VCC #PWR06
U 1 1 5C82A545
P 2450 2100
F 0 "#PWR06" H 2450 1950 50  0001 C CNN
F 1 "VCC" H 2450 2250 50  0000 C CNN
F 2 "" H 2450 2100 50  0001 C CNN
F 3 "" H 2450 2100 50  0001 C CNN
	1    2450 2100
	1    0    0    -1  
$EndComp
Wire Wire Line
	2450 2100 2900 2100
Wire Wire Line
	2900 2100 2900 1950
$Comp
L GND #PWR07
U 1 1 5C82A58E
P 2450 1400
F 0 "#PWR07" H 2450 1150 50  0001 C CNN
F 1 "GND" H 2450 1250 50  0000 C CNN
F 2 "" H 2450 1400 50  0001 C CNN
F 3 "" H 2450 1400 50  0001 C CNN
	1    2450 1400
	1    0    0    -1  
$EndComp
Wire Wire Line
	2450 1400 2900 1400
Wire Wire Line
	2900 1400 2900 1500
Text GLabel 2900 1650 0    60   Input ~ 0
A
Text GLabel 2900 1800 0    60   Input ~ 0
B
$Comp
L POT_TRIM RV1
U 1 1 5C82A949
P 2550 3950
F 0 "RV1" V 2375 3950 50  0000 C CNN
F 1 "POT_TRIM 10k" V 2450 3950 50  0000 C CNN
F 2 "" H 2550 3950 50  0001 C CNN
F 3 "" H 2550 3950 50  0001 C CNN
	1    2550 3950
	0    1    1    0   
$EndComp
$Comp
L GND #PWR08
U 1 1 5C82AA59
P 2200 3950
F 0 "#PWR08" H 2200 3700 50  0001 C CNN
F 1 "GND" H 2200 3800 50  0000 C CNN
F 2 "" H 2200 3950 50  0001 C CNN
F 3 "" H 2200 3950 50  0001 C CNN
	1    2200 3950
	1    0    0    -1  
$EndComp
$Comp
L VCC #PWR09
U 1 1 5C82AA7D
P 2950 3950
F 0 "#PWR09" H 2950 3800 50  0001 C CNN
F 1 "VCC" H 2950 4100 50  0000 C CNN
F 2 "" H 2950 3950 50  0001 C CNN
F 3 "" H 2950 3950 50  0001 C CNN
	1    2950 3950
	1    0    0    -1  
$EndComp
Wire Wire Line
	2700 3950 2950 3950
Wire Wire Line
	2200 3950 2400 3950
$Comp
L VCC #PWR010
U 1 1 5C82AB6F
P 3800 4700
F 0 "#PWR010" H 3800 4550 50  0001 C CNN
F 1 "VCC" H 3800 4850 50  0000 C CNN
F 2 "" H 3800 4700 50  0001 C CNN
F 3 "" H 3800 4700 50  0001 C CNN
	1    3800 4700
	1    0    0    -1  
$EndComp
$Comp
L GND #PWR011
U 1 1 5C82AB93
P 3800 2800
F 0 "#PWR011" H 3800 2550 50  0001 C CNN
F 1 "GND" H 3800 2650 50  0000 C CNN
F 2 "" H 3800 2800 50  0001 C CNN
F 3 "" H 3800 2800 50  0001 C CNN
	1    3800 2800
	1    0    0    -1  
$EndComp
Wire Wire Line
	3650 2900 3650 2700
Wire Wire Line
	3650 2700 3800 2700
Wire Wire Line
	3800 2700 3800 2800
Wire Wire Line
	3650 4500 3650 4700
Wire Wire Line
	3650 4700 3800 4700
Wire Wire Line
	2550 4100 2550 4300
Wire Wire Line
	2550 4300 3250 4300
Wire Wire Line
	3250 4000 2850 4000
Wire Wire Line
	2850 4000 2850 3950
Connection ~ 2850 3950
Wire Wire Line
	3250 3900 3250 3550
Wire Wire Line
	3250 3550 2250 3550
Wire Wire Line
	2250 3550 2250 3950
Connection ~ 2250 3950
Wire Wire Line
	5550 3500 4350 3500
Wire Wire Line
	4350 3500 4350 4100
Wire Wire Line
	4350 4100 4050 4100
Wire Wire Line
	4050 4300 4450 4300
Wire Wire Line
	4450 4300 4450 3600
Wire Wire Line
	4450 3600 5550 3600
$Comp
L GND #PWR012
U 1 1 5C82B08C
P 4250 4550
F 0 "#PWR012" H 4250 4300 50  0001 C CNN
F 1 "GND" H 4250 4400 50  0000 C CNN
F 2 "" H 4250 4550 50  0001 C CNN
F 3 "" H 4250 4550 50  0001 C CNN
	1    4250 4550
	1    0    0    -1  
$EndComp
Wire Wire Line
	4050 4200 4250 4200
Wire Wire Line
	4250 4200 4250 4550
Wire Wire Line
	4800 4100 5550 4100
Wire Wire Line
	4800 3400 4800 4100
Wire Wire Line
	4800 3400 4050 3400
Wire Wire Line
	4050 3300 4900 3300
Wire Wire Line
	4900 3300 4900 4200
Wire Wire Line
	4900 4200 5550 4200
Wire Wire Line
	4050 3200 5000 3200
Wire Wire Line
	5000 3200 5000 4300
Wire Wire Line
	5000 4300 5550 4300
Wire Wire Line
	4050 3100 5100 3100
Wire Wire Line
	5100 3100 5100 4400
Wire Wire Line
	5100 4400 5550 4400
NoConn ~ 4050 3800
NoConn ~ 4050 3700
NoConn ~ 4050 3600
NoConn ~ 4050 3500
NoConn ~ 5550 4000
NoConn ~ 5550 3900
$Comp
L GND #PWR013
U 1 1 5C82B561
P 5250 3850
F 0 "#PWR013" H 5250 3600 50  0001 C CNN
F 1 "GND" H 5250 3700 50  0000 C CNN
F 2 "" H 5250 3850 50  0001 C CNN
F 3 "" H 5250 3850 50  0001 C CNN
	1    5250 3850
	1    0    0    -1  
$EndComp
Wire Wire Line
	5250 3850 5250 3800
Wire Wire Line
	5250 3800 5550 3800
$Comp
L VCC #PWR014
U 1 1 5C82B5F0
P 5250 3700
F 0 "#PWR014" H 5250 3550 50  0001 C CNN
F 1 "VCC" H 5250 3850 50  0000 C CNN
F 2 "" H 5250 3700 50  0001 C CNN
F 3 "" H 5250 3700 50  0001 C CNN
	1    5250 3700
	1    0    0    -1  
$EndComp
Wire Wire Line
	5250 3700 5550 3700
Text Label 5550 3400 2    60   ~ 0
SP_NO
Text Label 5050 5600 0    60   ~ 0
SP_NO
Wire Wire Line
	4650 5600 4450 5600
$Comp
L GND #PWR015
U 1 1 5C82BDEC
P 8200 4700
F 0 "#PWR015" H 8200 4450 50  0001 C CNN
F 1 "GND" H 8200 4550 50  0000 C CNN
F 2 "" H 8200 4700 50  0001 C CNN
F 3 "" H 8200 4700 50  0001 C CNN
	1    8200 4700
	1    0    0    -1  
$EndComp
Wire Wire Line
	8050 4850 8050 4650
Wire Wire Line
	8050 4650 8200 4650
Wire Wire Line
	8200 4650 8200 4700
Wire Wire Line
	7450 4850 7450 4400
Wire Wire Line
	7450 4400 6800 4400
Wire Wire Line
	6800 4300 7600 4300
Wire Wire Line
	7600 4300 7600 4850
Wire Wire Line
	6800 4200 7750 4200
Wire Wire Line
	7750 4200 7750 4850
Wire Wire Line
	6800 4100 7900 4100
Wire Wire Line
	7900 4100 7900 4850
NoConn ~ 6800 4000
NoConn ~ 5550 3100
NoConn ~ 5550 3200
NoConn ~ 5550 3300
$EndSCHEMATC
